DSD_HW3/verilog/SingleCycleRTL.vcd
$date
    May 10, 2018  18:14:14
$end
$version
    TOOL:	ncsim	15.20-s039
$end
$timescale
    10 ps
$end

$scope module SingleCycle_tb $end
$var reg       1 !    clk  $end
$var reg       1 "    rst_n  $end
$var wire     32 #    IR_addr [31:0] $end
$var wire     32 $    IR [31:0] $end
$var wire     32 %    RF_writedata [31:0] $end
$var wire      1 &    ReadDataMem [31] $end
$var wire      1 '    ReadDataMem [30] $end
$var wire      1 (    ReadDataMem [29] $end
$var wire      1 )    ReadDataMem [28] $end
$var wire      1 *    ReadDataMem [27] $end
$var wire      1 +    ReadDataMem [26] $end
$var wire      1 ,    ReadDataMem [25] $end
$var wire      1 -    ReadDataMem [24] $end
$var wire      1 .    ReadDataMem [23] $end
$var wire      1 /    ReadDataMem [22] $end
$var wire      1 0    ReadDataMem [21] $end
$var wire      1 1    ReadDataMem [20] $end
$var wire      1 2    ReadDataMem [19] $end
$var wire      1 3    ReadDataMem [18] $end
$var wire      1 4    ReadDataMem [17] $end
$var wire      1 5    ReadDataMem [16] $end
$var wire      1 6    ReadDataMem [15] $end
$var wire      1 7    ReadDataMem [14] $end
$var wire      1 8    ReadDataMem [13] $end
$var wire      1 9    ReadDataMem [12] $end
$var wire      1 :    ReadDataMem [11] $end
$var wire      1 ;    ReadDataMem [10] $end
$var wire      1 <    ReadDataMem [9] $end
$var wire      1 =    ReadDataMem [8] $end
$var wire      1 >    ReadDataMem [7] $end
$var wire      1 ?    ReadDataMem [6] $end
$var wire      1 @    ReadDataMem [5] $end
$var wire      1 A    ReadDataMem [4] $end
$var wire      1 B    ReadDataMem [3] $end
$var wire      1 C    ReadDataMem [2] $end
$var wire      1 D    ReadDataMem [1] $end
$var wire      1 E    ReadDataMem [0] $end
$var wire      1 F    CEN  $end
$var wire      1 G    WEN  $end
$var wire      1 H    A [6] $end
$var wire      1 I    A [5] $end
$var wire      1 J    A [4] $end
$var wire      1 K    A [3] $end
$var wire      1 L    A [2] $end
$var wire      1 M    A [1] $end
$var wire      1 N    A [0] $end
$var wire      1 O    ReadData2 [31] $end
$var wire      1 P    ReadData2 [30] $end
$var wire      1 Q    ReadData2 [29] $end
$var wire      1 R    ReadData2 [28] $end
$var wire      1 S    ReadData2 [27] $end
$var wire      1 T    ReadData2 [26] $end
$var wire      1 U    ReadData2 [25] $end
$var wire      1 V    ReadData2 [24] $end
$var wire      1 W    ReadData2 [23] $end
$var wire      1 X    ReadData2 [22] $end
$var wire      1 Y    ReadData2 [21] $end
$var wire      1 Z    ReadData2 [20] $end
$var wire      1 [    ReadData2 [19] $end
$var wire      1 \    ReadData2 [18] $end
$var wire      1 ]    ReadData2 [17] $end
$var wire      1 ^    ReadData2 [16] $end
$var wire      1 _    ReadData2 [15] $end
$var wire      1 `    ReadData2 [14] $end
$var wire      1 a    ReadData2 [13] $end
$var wire      1 b    ReadData2 [12] $end
$var wire      1 c    ReadData2 [11] $end
$var wire      1 d    ReadData2 [10] $end
$var wire      1 e    ReadData2 [9] $end
$var wire      1 f    ReadData2 [8] $end
$var wire      1 g    ReadData2 [7] $end
$var wire      1 h    ReadData2 [6] $end
$var wire      1 i    ReadData2 [5] $end
$var wire      1 j    ReadData2 [4] $end
$var wire      1 k    ReadData2 [3] $end
$var wire      1 l    ReadData2 [2] $end
$var wire      1 m    ReadData2 [1] $end
$var wire      1 n    ReadData2 [0] $end
$var wire      1 o    OEN  $end
$var integer  32 p    error_cnt  $end
$var integer  32 q    i  $end

$scope module i_rom $end
$var wire      7 r    addr [6:0] $end
$var reg      32 s    data [31:0] $end
$var integer  32 t    i  $end
$upscope $end


$scope module i_MIPS $end
$var wire      1 u    clk  $end
$var wire      1 v    rst_n  $end
$var wire     32 $    IR [31:0] $end
$var wire     32 #    IR_addr [31:0] $end
$var wire     32 %    RF_writedata [31:0] $end
$var wire      1 &    ReadDataMem [31] $end
$var wire      1 '    ReadDataMem [30] $end
$var wire      1 (    ReadDataMem [29] $end
$var wire      1 )    ReadDataMem [28] $end
$var wire      1 *    ReadDataMem [27] $end
$var wire      1 +    ReadDataMem [26] $end
$var wire      1 ,    ReadDataMem [25] $end
$var wire      1 -    ReadDataMem [24] $end
$var wire      1 .    ReadDataMem [23] $end
$var wire      1 /    ReadDataMem [22] $end
$var wire      1 0    ReadDataMem [21] $end
$var wire      1 1    ReadDataMem [20] $end
$var wire      1 2    ReadDataMem [19] $end
$var wire      1 3    ReadDataMem [18] $end
$var wire      1 4    ReadDataMem [17] $end
$var wire      1 5    ReadDataMem [16] $end
$var wire      1 6    ReadDataMem [15] $end
$var wire      1 7    ReadDataMem [14] $end
$var wire      1 8    ReadDataMem [13] $end
$var wire      1 9    ReadDataMem [12] $end
$var wire      1 :    ReadDataMem [11] $end
$var wire      1 ;    ReadDataMem [10] $end
$var wire      1 <    ReadDataMem [9] $end
$var wire      1 =    ReadDataMem [8] $end
$var wire      1 >    ReadDataMem [7] $end
$var wire      1 ?    ReadDataMem [6] $end
$var wire      1 @    ReadDataMem [5] $end
$var wire      1 A    ReadDataMem [4] $end
$var wire      1 B    ReadDataMem [3] $end
$var wire      1 C    ReadDataMem [2] $end
$var wire      1 D    ReadDataMem [1] $end
$var wire      1 E    ReadDataMem [0] $end
$var wire      1 F    CEN  $end
$var wire      1 G    WEN  $end
$var wire      1 H    A [6] $end
$var wire      1 I    A [5] $end
$var wire      1 J    A [4] $end
$var wire      1 K    A [3] $end
$var wire      1 L    A [2] $end
$var wire      1 M    A [1] $end
$var wire      1 N    A [0] $end
$var wire      1 O    ReadData2 [31] $end
$var wire      1 P    ReadData2 [30] $end
$var wire      1 Q    ReadData2 [29] $end
$var wire      1 R    ReadData2 [28] $end
$var wire      1 S    ReadData2 [27] $end
$var wire      1 T    ReadData2 [26] $end
$var wire      1 U    ReadData2 [25] $end
$var wire      1 V    ReadData2 [24] $end
$var wire      1 W    ReadData2 [23] $end
$var wire      1 X    ReadData2 [22] $end
$var wire      1 Y    ReadData2 [21] $end
$var wire      1 Z    ReadData2 [20] $end
$var wire      1 [    ReadData2 [19] $end
$var wire      1 \    ReadData2 [18] $end
$var wire      1 ]    ReadData2 [17] $end
$var wire      1 ^    ReadData2 [16] $end
$var wire      1 _    ReadData2 [15] $end
$var wire      1 `    ReadData2 [14] $end
$var wire      1 a    ReadData2 [13] $end
$var wire      1 b    ReadData2 [12] $end
$var wire      1 c    ReadData2 [11] $end
$var wire      1 d    ReadData2 [10] $end
$var wire      1 e    ReadData2 [9] $end
$var wire      1 f    ReadData2 [8] $end
$var wire      1 g    ReadData2 [7] $end
$var wire      1 h    ReadData2 [6] $end
$var wire      1 i    ReadData2 [5] $end
$var wire      1 j    ReadData2 [4] $end
$var wire      1 k    ReadData2 [3] $end
$var wire      1 l    ReadData2 [2] $end
$var wire      1 m    ReadData2 [1] $end
$var wire      1 n    ReadData2 [0] $end
$var wire      1 o    OEN  $end
$var wire     26 w    Inst_25_0 [25:0] $end
$var wire      5 x    Inst_25_21 [4:0] $end
$var wire      5 y    Inst_20_16 [4:0] $end
$var wire      5 z    Inst_15_11 [4:0] $end
$var wire     16 {    Inst_15_0 [15:0] $end
$var wire      6 |    Inst_5_0 [5:0] $end
$var wire     32 }    pc [31:0] $end
$var wire     32 ~    PCnext [31:0] $end
$var wire      6 !!   opcode [5:0] $end
$var wire      6 "!   funct [5:0] $end
$var wire      1 #!   RegDst  $end
$var wire      1 $!   ALUSrc  $end
$var wire      1 %!   MemtoReg  $end
$var wire      1 &!   RegWrite  $end
$var wire      1 %!   MemRead  $end
$var wire      1 '!   MemWrite  $end
$var wire      1 (!   Jump  $end
$var wire      1 )!   Jump_true  $end
$var wire      2 *!   ALUOp [1:0] $end
$var wire      1 +!   Branch  $end
$var wire      1 ,!   isJAL  $end
$var wire      1 -!   isJR  $end
$var wire      1 .!   zero  $end
$var wire      4 /!   ALU_control [3:0] $end
$var wire     32 0!   ALU_Result [31:0] $end
$var wire     32 1!   ALU_data1 [31:0] $end
$var wire     32 2!   ALU_data2 [31:0] $end
$var wire      5 3!   register_rd_addr1 [4:0] $end
$var wire      5 4!   register_rd_addr2 [4:0] $end
$var wire     32 5!   register_rd_data2 [31:0] $end
$var wire      5 6!   register_wr_addr [4:0] $end
$var wire     32 7!   register_wr_data [31:0] $end
$var wire     32 8!   Add_result [31:0] $end
$var wire     32 9!   mem_alu_data_out [31:0] $end
$var wire     32 :!   pc_plus_4 [31:0] $end
$var wire     32 ;!   Inst_15_0_sign_extend [31:0] $end
$var wire     32 <!   Inst_15_0_sign_extend_shift_2 [31:0] $end
$var wire     32 =!   br_signext_sl2 [31:0] $end
$var wire     32 >!   JumpAddr [31:0] $end
$var wire      1 ?!   Mux_sel_a  $end
$var wire      5 @!   Mux_out_d [4:0] $end
$var wire     32 A!   Mux_out_a [31:0] $end
$var wire     32 B!   Mux_out_c [31:0] $end
$var wire     32 C!   Mux_out_b [31:0] $end

$scope module SignExtend_0 $end
$var wire     16 {    instruction [15:0] $end
$var wire     32 ;!   instruction_out [31:0] $end
$var reg      32 D!   instruction_value [31:0] $end
$upscope $end


$scope module Alu_control_0 $end
$var wire      6 |    instruction_5_0 [5:0] $end
$var wire      2 *!   ALUOp [1:0] $end
$var wire      4 /!   Alu_control [3:0] $end
$var reg       4 E!   Alu_control_reg [3:0] $end
$upscope $end


$scope module Registers_0 $end
$var wire      1 &!   RegWrite  $end
$var wire      1 u    clk  $end
$var wire      1 v    rst_n  $end
$var wire      5 3!   read_register_1 [4:0] $end
$var wire      5 4!   read_register_2 [4:0] $end
$var wire      5 6!   write_register [4:0] $end
$var wire     32 7!   write_data [31:0] $end
$var wire     32 1!   read_data_1 [31:0] $end
$var wire     32 5!   read_data_2 [31:0] $end
$var reg      32 F!   read_data_1_reg [31:0] $end
$var reg      32 G!   read_data_2_reg [31:0] $end
$upscope $end


$scope module Alu_0 $end
$var wire     32 1!   alu_data1 [31:0] $end
$var wire     32 2!   alu_data2 [31:0] $end
$var wire      4 /!   alu_ctrl [3:0] $end
$var wire      1 .!   zero  $end
$var wire     32 0!   alu_result [31:0] $end
$var reg      32 H!   result [31:0] $end
$upscope $end


$scope module Add_4_0 $end
$var wire     32 }    add_in [31:0] $end
$var wire     32 :!   add_out [31:0] $end
$var reg      32 I!   add_value [31:0] $end
$upscope $end


$scope module Control_0 $end
$var wire      6 !!   instruction [5:0] $end
$var wire      6 |    func [5:0] $end
$var wire      1 #!   RegDst  $end
$var wire      1 (!   Jump  $end
$var wire      1 +!   Branch  $end
$var wire      1 %!   MemRead  $end
$var wire      1 %!   MemToReg  $end
$var wire      1 '!   MemWrite  $end
$var wire      1 $!   ALUSrc  $end
$var wire      1 &!   RegWrite  $end
$var wire      1 ,!   isJAL  $end
$var wire      1 -!   isJR  $end
$var wire      2 *!   ALUOp [1:0] $end
$var reg       1 J!   RegDst_reg  $end
$var reg       1 K!   Jump_reg  $end
$var reg       1 L!   Branch_reg  $end
$var reg       1 M!   MemRead_reg  $end
$var reg       1 N!   MemToReg_reg  $end
$var reg       1 O!   MemWrite_reg  $end
$var reg       1 P!   ALUSrc_reg  $end
$var reg       1 Q!   RegWrite_reg  $end
$upscope $end


$scope module Add_0 $end
$var wire     32 :!   add_in1 [31:0] $end
$var wire     32 <!   add_in2 [31:0] $end
$var wire     32 8!   add_out [31:0] $end
$var reg      32 R!   add_value [31:0] $end
$upscope $end


$scope module mux_2x1_a $end
$var wire     32 8!   ip1 [31:0] $end
$var wire     32 :!   ip0 [31:0] $end
$var wire      1 ?!   sel  $end
$var reg      32 S!   out [31:0] $end
$upscope $end


$scope module mux_2x1_b $end
$var wire     32 >!   ip1 [31:0] $end
$var wire     32 A!   ip0 [31:0] $end
$var wire      1 )!   sel  $end
$var reg      32 T!   out [31:0] $end
$upscope $end


$scope module mux_2x1_c $end
$var wire      1 &    ip1 [31] $end
$var wire      1 '    ip1 [30] $end
$var wire      1 (    ip1 [29] $end
$var wire      1 )    ip1 [28] $end
$var wire      1 *    ip1 [27] $end
$var wire      1 +    ip1 [26] $end
$var wire      1 ,    ip1 [25] $end
$var wire      1 -    ip1 [24] $end
$var wire      1 .    ip1 [23] $end
$var wire      1 /    ip1 [22] $end
$var wire      1 0    ip1 [21] $end
$var wire      1 1    ip1 [20] $end
$var wire      1 2    ip1 [19] $end
$var wire      1 3    ip1 [18] $end
$var wire      1 4    ip1 [17] $end
$var wire      1 5    ip1 [16] $end
$var wire      1 6    ip1 [15] $end
$var wire      1 7    ip1 [14] $end
$var wire      1 8    ip1 [13] $end
$var wire      1 9    ip1 [12] $end
$var wire      1 :    ip1 [11] $end
$var wire      1 ;    ip1 [10] $end
$var wire      1 <    ip1 [9] $end
$var wire      1 =    ip1 [8] $end
$var wire      1 >    ip1 [7] $end
$var wire      1 ?    ip1 [6] $end
$var wire      1 @    ip1 [5] $end
$var wire      1 A    ip1 [4] $end
$var wire      1 B    ip1 [3] $end
$var wire      1 C    ip1 [2] $end
$var wire      1 D    ip1 [1] $end
$var wire      1 E    ip1 [0] $end
$var wire     32 0!   ip0 [31:0] $end
$var wire      1 %!   sel  $end
$var reg      32 U!   out [31:0] $end
$upscope $end


$scope module mux_2x1_d $end
$var wire      5 z    ip1 [4:0] $end
$var wire      5 y    ip0 [4:0] $end
$var wire      1 #!   sel  $end
$var reg       5 V!   out [4:0] $end
$upscope $end


$scope module mux_2x1_e $end
$var wire     32 ;!   ip1 [31:0] $end
$var wire     32 5!   ip0 [31:0] $end
$var wire      1 $!   sel  $end
$var reg      32 W!   out [31:0] $end
$upscope $end


$scope module mux_2x1_f $end
$var wire     32 :!   ip1 [31:0] $end
$var wire     32 B!   ip0 [31:0] $end
$var wire      1 ,!   sel  $end
$var reg      32 X!   out [31:0] $end
$upscope $end


$scope module mux_2x1_g $end
$var wire      5 Y!   ip1 [4:0] $end
$var wire      5 @!   ip0 [4:0] $end
$var wire      1 ,!   sel  $end
$var reg       5 Z!   out [4:0] $end
$upscope $end


$scope module mux_2x1_h $end
$var wire     32 1!   ip1 [31:0] $end
$var wire     32 C!   ip0 [31:0] $end
$var wire      1 -!   sel  $end
$var reg      32 [!   out [31:0] $end
$upscope $end


$scope module PC_0 $end
$var reg      32 \!   PC_value [31:0] $end
$var wire      1 u    clk  $end
$var wire      1 v    rst_n  $end
$var wire     32 ~    PCin [31:0] $end
$var wire     32 }    PCnext [31:0] $end
$upscope $end

$upscope $end


$scope module Data_memory $end
$var parameter 32 ]!   BITS  $end
$var parameter 32 ^!   word_depth  $end
$var parameter 32 _!   addr_width  $end
$var parameter 32 `!   wordx  $end
$var parameter  7 a!   addrx  $end
$var wire      1 &    Q [31] $end
$var wire      1 '    Q [30] $end
$var wire      1 (    Q [29] $end
$var wire      1 )    Q [28] $end
$var wire      1 *    Q [27] $end
$var wire      1 +    Q [26] $end
$var wire      1 ,    Q [25] $end
$var wire      1 -    Q [24] $end
$var wire      1 .    Q [23] $end
$var wire      1 /    Q [22] $end
$var wire      1 0    Q [21] $end
$var wire      1 1    Q [20] $end
$var wire      1 2    Q [19] $end
$var wire      1 3    Q [18] $end
$var wire      1 4    Q [17] $end
$var wire      1 5    Q [16] $end
$var wire      1 6    Q [15] $end
$var wire      1 7    Q [14] $end
$var wire      1 8    Q [13] $end
$var wire      1 9    Q [12] $end
$var wire      1 :    Q [11] $end
$var wire      1 ;    Q [10] $end
$var wire      1 <    Q [9] $end
$var wire      1 =    Q [8] $end
$var wire      1 >    Q [7] $end
$var wire      1 ?    Q [6] $end
$var wire      1 @    Q [5] $end
$var wire      1 A    Q [4] $end
$var wire      1 B    Q [3] $end
$var wire      1 C    Q [2] $end
$var wire      1 D    Q [1] $end
$var wire      1 E    Q [0] $end
$var wire      1 b!   CLK  $end
$var wire      1 F    CEN  $end
$var wire      1 G    WEN  $end
$var wire      1 H    A [6] $end
$var wire      1 I    A [5] $end
$var wire      1 J    A [4] $end
$var wire      1 K    A [3] $end
$var wire      1 L    A [2] $end
$var wire      1 M    A [1] $end
$var wire      1 N    A [0] $end
$var wire      1 O    D [31] $end
$var wire      1 P    D [30] $end
$var wire      1 Q    D [29] $end
$var wire      1 R    D [28] $end
$var wire      1 S    D [27] $end
$var wire      1 T    D [26] $end
$var wire      1 U    D [25] $end
$var wire      1 V    D [24] $end
$var wire      1 W    D [23] $end
$var wire      1 X    D [22] $end
$var wire      1 Y    D [21] $end
$var wire      1 Z    D [20] $end
$var wire      1 [    D [19] $end
$var wire      1 \    D [18] $end
$var wire      1 ]    D [17] $end
$var wire      1 ^    D [16] $end
$var wire      1 _    D [15] $end
$var wire      1 `    D [14] $end
$var wire      1 a    D [13] $end
$var wire      1 b    D [12] $end
$var wire      1 c    D [11] $end
$var wire      1 d    D [10] $end
$var wire      1 e    D [9] $end
$var wire      1 f    D [8] $end
$var wire      1 g    D [7] $end
$var wire      1 h    D [6] $end
$var wire      1 i    D [5] $end
$var wire      1 j    D [4] $end
$var wire      1 k    D [3] $end
$var wire      1 l    D [2] $end
$var wire      1 m    D [1] $end
$var wire      1 n    D [0] $end
$var wire      1 o    OEN  $end
$var reg       1 c!   NOT_CEN  $end
$var reg       1 d!   NOT_WEN  $end
$var reg       1 e!   NOT_A0  $end
$var reg       1 f!   NOT_A1  $end
$var reg       1 g!   NOT_A2  $end
$var reg       1 h!   NOT_A3  $end
$var reg       1 i!   NOT_A4  $end
$var reg       1 j!   NOT_A5  $end
$var reg       1 k!   NOT_A6  $end
$var reg       7 l!   NOT_A [6:0] $end
$var reg       1 m!   NOT_D0  $end
$var reg       1 n!   NOT_D1  $end
$var reg       1 o!   NOT_D2  $end
$var reg       1 p!   NOT_D3  $end
$var reg       1 q!   NOT_D4  $end
$var reg       1 r!   NOT_D5  $end
$var reg       1 s!   NOT_D6  $end
$var reg       1 t!   NOT_D7  $end
$var reg       1 u!   NOT_D8  $end
$var reg       1 v!   NOT_D9  $end
$var reg       1 w!   NOT_D10  $end
$var reg       1 x!   NOT_D11  $end
$var reg       1 y!   NOT_D12  $end
$var reg       1 z!   NOT_D13  $end
$var reg       1 {!   NOT_D14  $end
$var reg       1 |!   NOT_D15  $end
$var reg       1 }!   NOT_D16  $end
$var reg       1 ~!   NOT_D17  $end
$var reg       1 !"   NOT_D18  $end
$var reg       1 ""   NOT_D19  $end
$var reg       1 #"   NOT_D20  $end
$var reg       1 $"   NOT_D21  $end
$var reg       1 %"   NOT_D22  $end
$var reg       1 &"   NOT_D23  $end
$var reg       1 '"   NOT_D24  $end
$var reg       1 ("   NOT_D25  $end
$var reg       1 )"   NOT_D26  $end
$var reg       1 *"   NOT_D27  $end
$var reg       1 +"   NOT_D28  $end
$var reg       1 ,"   NOT_D29  $end
$var reg       1 -"   NOT_D30  $end
$var reg       1 ."   NOT_D31  $end
$var reg      32 /"   NOT_D [31:0] $end
$var reg       1 0"   NOT_CLK_PER  $end
$var reg       1 1"   NOT_CLK_MINH  $end
$var reg       1 2"   NOT_CLK_MINL  $end
$var reg       1 3"   LAST_NOT_CEN  $end
$var reg       1 4"   LAST_NOT_WEN  $end
$var reg       7 5"   LAST_NOT_A [6:0] $end
$var reg      32 6"   LAST_NOT_D [31:0] $end
$var reg       1 7"   LAST_NOT_CLK_PER  $end
$var reg       1 8"   LAST_NOT_CLK_MINH  $end
$var reg       1 9"   LAST_NOT_CLK_MINL  $end
$var wire      1 :"   _Q [31] $end
$var wire      1 ;"   _Q [30] $end
$var wire      1 <"   _Q [29] $end
$var wire      1 ="   _Q [28] $end
$var wire      1 >"   _Q [27] $end
$var wire      1 ?"   _Q [26] $end
$var wire      1 @"   _Q [25] $end
$var wire      1 A"   _Q [24] $end
$var wire      1 B"   _Q [23] $end
$var wire      1 C"   _Q [22] $end
$var wire      1 D"   _Q [21] $end
$var wire      1 E"   _Q [20] $end
$var wire      1 F"   _Q [19] $end
$var wire      1 G"   _Q [18] $end
$var wire      1 H"   _Q [17] $end
$var wire      1 I"   _Q [16] $end
$var wire      1 J"   _Q [15] $end
$var wire      1 K"   _Q [14] $end
$var wire      1 L"   _Q [13] $end
$var wire      1 M"   _Q [12] $end
$var wire      1 N"   _Q [11] $end
$var wire      1 O"   _Q [10] $end
$var wire      1 P"   _Q [9] $end
$var wire      1 Q"   _Q [8] $end
$var wire      1 R"   _Q [7] $end
$var wire      1 S"   _Q [6] $end
$var wire      1 T"   _Q [5] $end
$var wire      1 U"   _Q [4] $end
$var wire      1 V"   _Q [3] $end
$var wire      1 W"   _Q [2] $end
$var wire      1 X"   _Q [1] $end
$var wire      1 Y"   _Q [0] $end
$var wire      1 Z"   _OENi  $end
$var wire      7 ["   _A [6:0] $end
$var wire      1 \"   _CLK  $end
$var wire      1 ]"   _CEN  $end
$var wire      1 ^"   _OEN  $end
$var wire      1 _"   _WEN  $end
$var wire     32 `"   _D [31:0] $end
$var wire      1 a"   re_flag  $end
$var wire      1 b"   re_data_flag  $end
$var reg       1 c"   LATCHED_CEN  $end
$var reg       1 d"   LATCHED_WEN  $end
$var reg       7 e"   LATCHED_A [6:0] $end
$var reg      32 f"   LATCHED_D [31:0] $end
$var reg       1 g"   CENi  $end
$var reg       1 h"   WENi  $end
$var reg       7 i"   Ai [6:0] $end
$var reg      32 j"   Di [31:0] $end
$var reg      32 k"   Qi [31:0] $end
$var reg      32 l"   LAST_Qi [31:0] $end
$var reg       1 m"   LAST_CLK  $end

$scope task x_inputs $end
$var integer  32 n"   n  $end
$upscope $end


$scope task read_mem $end
$var reg       1 o"   r_wb  $end
$var reg       1 p"   xflag  $end
$upscope $end


$scope task write_mem $end
$var reg       7 q"   a [6:0] $end
$var reg      32 r"   d [31:0] $end
$upscope $end


$scope task write_mem_x $end
$var reg       7 s"   a [6:0] $end
$upscope $end


$scope task x_mem $end
$var integer  32 t"   n  $end
$upscope $end


$scope function valid_address $end
$var reg       1 u"   valid_address  $end
$var reg       7 v"   a [6:0] $end
$upscope $end

$upscope $end

$upscope $end

$enddefinitions $end
$dumpvars
bx a!
bx `!
b111 _!
b10000000 ^!
b100000 ]!
0!
1"
bx #
bx $
bx %
x&
x'
x(
x)
x*
x+
x,
x-
x.
x/
x0
x1
x2
x3
x4
x5
x6
x7
x8
x9
x:
x;
x<
x=
x>
x?
x@
xA
xB
xC
xD
xE
xF
xG
xH
xI
xJ
xK
xL
xM
xN
xO
xP
xQ
xR
xS
xT
xU
xV
xW
xX
xY
xZ
x[
x\
x]
x^
x_
x`
xa
xb
xc
xd
xe
xf
xg
xh
xi
xj
xk
xl
xm
xn
0o
b0 p
bx q
bx r
bx s
bx t
0u
1v
bx w
bx x
bx y
bx z
bx {
bx |
bx }
bx ~
bx !!
bz "!
x#!
x$!
x%!
x&!
x'!
x(!
x)!
bx *!
x+!
x,!
x-!
x.!
bx /!
bx 0!
bx 1!
bx 2!
bx 3!
bx 4!
bx 5!
bx 6!
bx 7!
bx 8!
bz 9!
bx :!
bx ;!
bx00 <!
bz =!
bx00 >!
x?!
bx @!
bx A!
bx B!
bx C!
bx D!
bx E!
bx F!
bx G!
bx H!
bx I!
xJ!
xK!
xL!
xM!
xN!
xO!
xP!
xQ!
bx R!
bx S!
bx T!
bx U!
bx V!
bx W!
bx X!
b11111 Y!
bx Z!
bx [!
bx \!
1b!
xc!
xd!
xe!
xf!
xg!
xh!
xi!
xj!
xk!
bx l!
xm!
xn!
xo!
xp!
xq!
xr!
xs!
xt!
xu!
xv!
xw!
xx!
xy!
xz!
x{!
x|!
x}!
x~!
x!"
x""
x#"
x$"
x%"
x&"
x'"
x("
x)"
x*"
x+"
x,"
x-"
x."
bx /"
x0"
x1"
x2"
x3"
x4"
bx 5"
bx 6"
x7"
x8"
x9"
x:"
x;"
x<"
x="
x>"
x?"
x@"
xA"
xB"
xC"
xD"
xE"
xF"
xG"
xH"
xI"
xJ"
xK"
xL"
xM"
xN"
xO"
xP"
xQ"
xR"
xS"
xT"
xU"
xV"
xW"
xX"
xY"
0Z"
bx ["
1\"
x]"
0^"
x_"
bx `"
xa"
xb"
xc"
xd"
bx e"
bx f"
xg"
xh"
bx i"
bx j"
bx k"
bx l"
1m"
bx n"
xo"
xp"
bx q"
bx r"
bx s"
bx t"
xu"
bx v"
$end
#200
0"
0v
b0 \!
b0 F!
b0 G!
b0 }
b100 I!
b0 #
b100 :!
b100 S!
b100 A!
b0 r
b100 T!
b10001100000010000000000000000000 s
b10001100000010000000000000000000 $
b100 C!
b100 [!
b100 ~
b0 {
b0 z
b1000 y
b0 x
b10000000000000000000 w
b0 |
b100011 !!
b0 D!
b1000 V!
b10 E!
0F
0,!
1$!
0'!
1%!
0+!
0(!
0#!
b0 *!
b10 /!
0-!
1&!
b0 3!
b1000 4!
b1000 @!
b0 ;!
0?!
1G
0]"
1a"
1_"
0b"
b1000 Z!
b0 W!
b0 <!
b0 5!
b0 1!
0.!
0)!
b0 2!
b1000 6!
b100 R!
b0 H!
b0 0!
0O
0P
0Q
0R
0S
0T
0U
0V
0W
0X
0Y
0Z
0[
0\
0]
0^
0_
0`
0a
0b
0c
0d
0e
0f
0g
0h
0i
0j
0k
0l
0m
0n
b0 >!
b100 8!
b0 `"
0H
0I
0J
0K
0L
0M
0N
b0 ["
#500
1!
0b!
1u
0\"
0m"
#1000
0!
1b!
0u
1\"
b0 e"
b0 f"
1d"
0c"
0g"
1h"
b0 i"
b0 j"
1o"
0p"
b0 v"
1u"
b1111 k"
1m"
0:"
0;"
0<"
0="
0>"
0?"
0@"
0A"
0B"
0C"
0D"
0E"
0F"
0G"
0H"
0I"
0J"
0K"
0L"
0M"
0N"
0O"
0P"
0Q"
0R"
0S"
0T"
0U"
1V"
1W"
1X"
1Y"
#1100
1E
1D
1C
1B
0A
0@
0?
0>
0=
0<
0;
0:
09
08
07
06
05
04
03
02
01
00
0/
0.
0-
0,
0+
0*
0)
0(
0'
0&
b1111 U!
b1111 B!
b1111 X!
b1111 7!
b1111 %
#1500
1!
0b!
1u
0\"
0m"
#1700
1"
1v
#2000
0!
1b!
0u
1\"
b1111 l"
1m"
#2500
1!
0b!
1u
0\"
0m"
b100 \!
b1111 5!
b100 }
b1000 I!
b100 #
b1000 :!
1k
1l
1m
1n
b1000 S!
b1000 R!
b1111 `"
b1000 8!
b1000 A!
b1 r
b1000 T!
b10001100000010010000000000000100 s
b10001100000010010000000000000100 $
b1000 C!
b1000 [!
b1000 ~
b100 {
b1001 y
b10010000000000000100 w
b100 |
b100 D!
b1001 V!
b1001 4!
b1001 @!
b100 ;!
b1001 Z!
b100 W!
b10000 <!
b100 2!
b1001 6!
b0 5!
b11000 R!
b100 H!
0k
0l
0m
0n
b100 0!
b10000 >!
b11000 8!
1N
b0 `"
b1 ["
#3000
0!
1b!
0u
1\"
b1 e"
b1 i"
b1 v"
b10100 k"
1m"
1U"
0V"
0X"
0Y"
#3100
0E
0D
0B
1A
b10100 U!
b10100 B!
b10100 X!
b10100 7!
b10100 %
#3500
1!
0b!
1u
0\"
0m"
b1000 \!
b10100 5!
b1000 }
b1100 I!
b1000 #
b1100 :!
1j
1l
b1100 S!
b11100 R!
b10100 `"
b11100 8!
b1100 A!
b10 r
b1100 T!
b1000010000100000000100000 s
b1000010000100000000100000 $
b1100 C!
b1100 [!
b1100 ~
b100000000100000 {
b1000 z
b1000 y
b1000 x
b1000010000100000000100000 w
b100000 |
b0 !!
b100000000100000 D!
b1000 V!
1F
0$!
0%!
1#!
b10 *!
b1000 3!
b1000 4!
b1000 @!
b100000000100000 ;!
1]"
0a"
b10100 W!
b100 U!
b1000 Z!
b10000000010000000 <!
b1000 6!
b1111 5!
b1111 1!
b100 B!
b10100 2!
b10000000010001100 R!
b1111 W!
b100011 H!
b100 X!
b100 7!
b100011 0!
0j
1k
1m
1n
b1111 2!
b10000000010000000 >!
b10000000010001100 8!
b100011 U!
b11110 H!
b11110 0!
b1111 `"
1K
0N
b100011 B!
b100 %
b11110 U!
b100011 X!
b100011 7!
b1000 ["
0K
1L
1M
1N
b11110 B!
b11110 X!
b11110 7!
b111 ["
b100011 %
b11110 %
#4000
0!
1b!
0u
1\"
b111 e"
b1111 f"
1c"
b10100 l"
1g"
b111 i"
b1111 j"
1m"
#4500
1!
0b!
1u
0\"
0m"
b1100 \!
b11110 5!
b11110 1!
b1100 }
b11110 W!
b101101 H!
b10000 I!
b1100 #
b10000 :!
b101101 0!
1j
0n
b11110 2!
b10000 S!
b10000000010010000 R!
b101101 U!
b111100 H!
b111100 0!
b11110 `"
1K
0L
b101101 B!
b10000000010010000 8!
b10000 A!
b11 r
b111100 U!
b101101 X!
b10000 T!
b1000010010101000000100010 s
b1000010010101000000100010 $
b10000 C!
b101101 7!
b1011 ["
1L
b111100 B!
b10000 [!
b111100 X!
b111100 7!
b1111 ["
b101101 %
b10000 ~
b101000000100010 {
b1010 z
b1001 y
b1000010010101000000100010 w
b100010 |
b101000000100010 D!
b1010 V!
b110 E!
b110 /!
b1001 4!
b1010 @!
b101000000100010 ;!
b111100 %
b0 H!
b1010 Z!
1.!
b10100000010001000 <!
b1010 6!
b10100 5!
b0 0!
b10100000010011000 R!
b10100 W!
b0 U!
0K
0L
0M
0N
b0 B!
0k
0m
b10100 2!
b10100000010001000 >!
b10100000010011000 8!
b0 X!
b1010 H!
0.!
b1010 0!
b10100 `"
b0 7!
b0 ["
b1010 U!
b0 %
1M
b1010 B!
b1010 X!
b1010 7!
b10 ["
b1010 %
#5000
0!
1b!
0u
1\"
b10 e"
b10100 f"
b10 i"
b10100 j"
1m"
