HW1/2-barrel_shifter/barrel.vcd
$date
    Mar 19, 2018  11:30:15
$end
$version
    TOOL:	ncsim	10.20-s114
$end
$timescale
    10 ps
$end

$scope module barrel_test $end
$var parameter 32 !    pattern_num  $end
$var wire      8 "    out [7:0] $end
$var wire      1 #    carry  $end
$var reg       8 $    x [7:0] $end
$var reg       8 %    y [7:0] $end
$var reg       1 &    clk  $end
$var reg       1 '    stop  $end
$var integer  32 (    i  $end
$var integer  32 )    num  $end
$var integer  32 *    error  $end
$var reg       8 +    ans_out [7:0] $end
$var reg       8 ,    barrel_out [7:0] $end

$scope module B $end
$var wire      8 -    in [7:0] $end
$var wire      3 .    shift [2:0] $end
$var wire      8 "    out [7:0] $end
$var reg       1 /    zero  $end
$var wire      8 0    x1 [7:0] $end
$var wire      8 1    x2 [7:0] $end
$upscope $end

$upscope $end

$enddefinitions $end
$dumpvars
b1000 !
b10101010 "
z#
b10101010 $
b0 %
1&
0'
b0 (
b10 )
b0 *
bx +
bx ,
b10101010 -
b0 .
0/
b10101010 0
b10101010 1
$end
#1000
0&
#2000
1&
b1 %
b100 )
b1 .
b1010100 0
b1010100 1
b1010100 "
b1 (
b10101010 ,
b10101010 +
#3000
0&
#4000
1&
b10 %
b110 )
b10 .
b10101010 0
b1010000 1
b1010000 "
b10101000 1
b10101000 "
b10 (
b1010100 ,
b1010100 +
#5000
0&
#6000
1&
b11 %
b1000 )
b11 .
b1010100 0
b1010000 1
b1010000 "
b11 (
b10101000 ,
b10101000 +
#7000
0&
#8000
1&
b100 %
b1010 )
b100 .
b10101010 0
b1010100 1
b0 "
b1000000 "
b10101010 1
b10100000 "
b100 (
b1010000 ,
b1010000 +
#9000
0&
#10000
1&
b101 %
b1100 )
b101 .
b1010100 0
b1010100 1
b1000000 "
b101 (
b10100000 ,
b10100000 +
#11000
0&
#12000
1&
b110 %
b1110 )
b110 .
b10101010 0
b1010000 1
b0 "
b10101000 1
b10000000 "
b110 (
b1000000 ,
b1000000 +
#13000
0&
#14000
1&
b111 %
b10000 )
b111 .
b1010100 0
b1010000 1
b0 "
b111 (
b10000000 ,
b10000000 +
#15000
0&
#16000
1&
b1000 (
b0 ,
b0 +
#17000
0&
#18000
1&
b1001 (
1'
bx +
